JobId=1593147 JobName=submit.job
   UserId=lbellen1(33678) GroupId=interactive(25200) MCS_label=N/A
   Priority=184319 Nice=0 Account=cin_staff QOS=qos_special
   JobState=RUNNING Reason=None Dependency=(null)
   Requeue=0 Restarts=0 BatchFlag=1 Reboot=0 ExitCode=0:0
   DerivedExitCode=0:0
   RunTime=00:00:02 TimeLimit=00:40:00 TimeMin=N/A
   SubmitTime=2023-10-02T18:43:52 EligibleTime=2023-10-02T18:43:52
   AccrueTime=2023-10-02T18:43:52
   StartTime=2023-10-02T18:43:53 EndTime=2023-10-02T19:23:53 Deadline=N/A
   SuspendTime=None SecsPreSuspend=0 LastSchedEval=2023-10-02T18:43:53 Scheduler=Main
   Partition=boost_usr_prod AllocNode:Sid=10-99-0-2:2245715
   ReqNodeList=(null) ExcNodeList=(null)
   NodeList=lrdn[0170,0178,0180,0187-0188,0193-0194,0197,0199-0200,0204,0206,0208-0209,0212,0214-0216,0228-0230,0234-0237,0239,0246-0248,0253,0258-0260,0264-0267,0269,0273,0276-0278,0288-0290,0295-0299,0306,0308,0311,0313-0314,0317-0319,0324-0327,0331-0333,0336,0340,0348-0350,0353-0355,0357,0363-0366,0370-0372,0376-0377,0381,0383-0384,0393-0396,0401-0402,0407,0409,0412-0415,0423-0426,0431-0432,0437-0438,0442-0445,0453-0456,0460-0462,0467,0472-0475,0485-0488,0502-0505,0514-0517,0520-0522,0527,0537-0538,0541,0549,0553-0554,0556,0561-0563,0569-0570,0583-0584,0588-0590,0597-0599,0601,0604-0606,0609,0611-0612,0615-0617,0621-0622,0632,0634-0636,0640,0642,0647,0649,0657-0658,0673-0674,0681-0684,0689-0690,0692,0694-0696,0711-0712,0714-0715,0719-0720,0724-0727,0738-0740,0747-0749,0753-0756,0762,0767,0769-0770,0778,0784-0787,0806-0807,0809-0810,0814-0817,0822,0827,0829-0830,0837-0838,0848,0850-0853,0856-0857,0861,0864-0865,0872-0875,0885,0891,0893-0894,0899-0900,0913-0914,0923-0926,0929-0930,0942-0944,0947-0949,0952-0955,0962-0965,0969,0971-0972,0975,0977,0982-0984,0992-0995,0999,1001,1006-1007,1011-1013,1023-1026,1029-1030,1032,1038,1041-1044,1053-1056,1061-1062,1067-1068,1071-1074,1081,1083-1085,1108-1110,1148,1153,1167-1171,1184,1197-1200,1213-1214,1227-1230,1243-1244,1258-1261,1273-1274,1278,1288-1290,1292-1295,1301-1302,1306-1308,1311-1313,1322-1325,1330-1332,1335,1337,1341-1343,1352-1354,1361-1362,1367-1368,1371-1374,1381-1382,1385-1386,1389,1391-1392,1396-1397,1401-1403,1413-1416,1422,1428,1432-1435,1442-1445,1450-1451,1456-1458,1461-1463,1471-1474,1481,1487-1489,1491-1494,1503-1506,1509,1511-1512,1517,1521-1524,1533-1534,1540,1542,1546-1548,1551-1553,1563-1566,1571,1577-1579,1581-1584,1591,1593-1595,1601-1602,1605-1608,1613-1614,1623-1626,1630,1632,1636-1638,1641-1643,1651,1653-1654,1656,1661-1662,1667-1668,1671-1674,1682,1684-1686,1691-1692,1697-1698,1701-1704,1713-1716,1721-1722,1727-1728,1731-1732,1734,1742-1744,1746,1749-1750,1752,1756-1757,1762-1764,1772-1773,1775-1776,1779-1782,1785,1791-1793,1802-1805,1811-1812,1815,1817-1818,1821-1823,1833-1836,1841-1842,1847-1848,1851-1854,1863-1866,1870,1872,1876-1878,1881-1882,1885,1894-1895,1897,1900-1901,1903,1906-1908,1911-1913,1923-1926,1929,1931-1932,1937,1942-1945,1954,1956-1958,1960-1962,1967,1971-1974,1982-1985,1992,1997-1999,2003-2006,2012-2015,2021-2022,2027-2028,2031-2034,2044-2045,2048,2051-2053,2055-2058,2064-2065,2072,2074-2075,2077,2080-2082,2086-2087,2091-2093,2103-2105,2107,2110,2112,2115,2119,2121-2123,2130,2132-2133,2135-2136,2141-2142,2145-2148,2152,2154,2161,2163-2165,2169-2170,2172,2177,2181-2183,2185,2199,2201-2205,2207,2211-2213,2222-2223,2225-2226,2231-2232,2235,2237,2239,2241-2243,2253-2255,2257,2259,2261-2262,2266-2267,2271-2272,2275,2281,2283-2285,2289,2291-2292,2296,2298,2301-2302,2304,2312-2315,2321-2322,2325-2328,2331,2333,2351-2352,2355-2358,2361-2362,2372-2374,2376,2380-2382,2387,2391-2392,2394-2395,2401,2403-2405,2409-2412,2416,2421-2423,2432-2433,2435-2436,2439,2441-2442,2446-2447,2451,2453-2454,2461-2464,2470-2472,2476,2479,2481,2483,2485,2495-2499,2501-2502,2505,2507,2511-2513,2536,2642-2643,2651-2652,2657-2658,2717,2733,2881-2882,2884,2887,2891,2896-2897,2899,2901-2903,2909,2918,2920,2922-2924,2926-2928,2931-2933,2942,2944-2946,2951-2952,2955,2957-2958,2962,2965-2966,2971,2974-2975,2980,2982-2983,2985-2987,2989,2991-2992,3002-3003,3005,3007,3011,3015,3017-3018,3021,3023-3024,3029,3031-3032,3034-3035,3039-3040,3042,3045,3047,3051-3052,3055,3061,3063-3065,3071-3072,3075,3077-3078,3082-3084,3091-3092,3094-3095,3099,3101-3102,3105,3107,3111-3113,3123-3126,3130-3132,3135-3137,3141-3142,3151-3152,3154-3155,3160-3162,3165,3167,3171-3173,3182-3185,3189-3192,3195-3196,3201-3202,3211-3212,3214-3215,3219-3222,3234-3237,3242,3244-3246,3249-3250,3252,3255,3257,3261-3262,3264,3273-3276,3281-3282,3286,3288,3291-3292,3302-3304,3309-3310,3312,3315,3345,3375-3376,3378,3404,3417]
   BatchHost=lrdn0170
   NumNodes=1024 NumCPUs=32768 NumTasks=4096 CPUs/Task=8 ReqB:S:C:T=0:0:*:*
   TRES=cpu=32768,mem=492800G,node=1024,billing=32768,gres/gpu=4096
   Socks/Node=* NtasksPerN:B:S:C=4:0:*:* CoreSpec=*
   JOB_GRES=gpu:a100:4096
     Nodes=lrdn[0170,0178,0180,0187-0188,0193-0194,0197,0199-0200,0204,0206,0208-0209,0212,0214-0216,0228-0230,0234-0237,0239,0246-0248,0253,0258-0260,0264-0267,0269,0273,0276-0278,0288-0290,0295-0299,0306,0308,0311,0313-0314,0317-0319,0324-0327,0331-0333,0336,0340,0348-0350,0353-0355,0357,0363-0366,0370-0372,0376-0377,0381,0383-0384,0393-0396,0401-0402,0407,0409,0412-0415,0423-0426,0431-0432,0437-0438,0442-0445,0453-0456,0460-0462,0467,0472-0475,0485-0488,0502-0505,0514-0517,0520-0522,0527,0537-0538,0541,0549,0553-0554,0556,0561-0563,0569-0570,0583-0584,0588-0590,0597-0599,0601,0604-0606,0609,0611-0612,0615-0617,0621-0622,0632,0634-0636,0640,0642,0647,0649,0657-0658,0673-0674,0681-0684,0689-0690,0692,0694-0696,0711-0712,0714-0715,0719-0720,0724-0727,0738-0740,0747-0749,0753-0756,0762,0767,0769-0770,0778,0784-0787,0806-0807,0809-0810,0814-0817,0822,0827,0829-0830,0837-0838,0848,0850-0853,0856-0857,0861,0864-0865,0872-0875,0885,0891,0893-0894,0899-0900,0913-0914,0923-0926,0929-0930,0942-0944,0947-0949,0952-0955,0962-0965,0969,0971-0972,0975,0977,0982-0984,0992-0995,0999,1001,1006-1007,1011-1013,1023-1026,1029-1030,1032,1038,1041-1044,1053-1056,1061-1062,1067-1068,1071-1074,1081,1083-1085,1108-1110,1148,1153,1167-1171,1184,1197-1200,1213-1214,1227-1230,1243-1244,1258-1261,1273-1274,1278,1288-1290,1292-1295,1301-1302,1306-1308,1311-1313,1322-1325,1330-1332,1335,1337,1341-1343,1352-1354,1361-1362,1367-1368,1371-1374,1381-1382,1385-1386,1389,1391-1392,1396-1397,1401-1403,1413-1416,1422,1428,1432-1435,1442-1445,1450-1451,1456-1458,1461-1463,1471-1474,1481,1487-1489,1491-1494,1503-1506,1509,1511-1512,1517,1521-1524,1533-1534,1540,1542,1546-1548,1551-1553,1563-1566,1571,1577-1579,1581-1584,1591,1593-1595,1601-1602,1605-1608,1613-1614,1623-1626,1630,1632,1636-1638,1641-1643,1651,1653-1654,1656,1661-1662,1667-1668,1671-1674,1682,1684-1686,1691-1692,1697-1698,1701-1704,1713-1716,1721-1722,1727-1728,1731-1732,1734,1742-1744,1746,1749-1750,1752,1756-1757,1762-1764,1772-1773,1775-1776,1779-1782,1785,1791-1793,1802-1805,1811-1812,1815,1817-1818,1821-1823,1833-1836,1841-1842,1847-1848,1851-1854,1863-1866,1870,1872,1876-1878,1881-1882,1885,1894-1895,1897,1900-1901,1903,1906-1908,1911-1913,1923-1926,1929,1931-1932,1937,1942-1945,1954,1956-1958,1960-1962,1967,1971-1974,1982-1985,1992,1997-1999,2003-2006,2012-2015,2021-2022,2027-2028,2031-2034,2044-2045,2048,2051-2053,2055-2058,2064-2065,2072,2074-2075,2077,2080-2082,2086-2087,2091-2093,2103-2105,2107,2110,2112,2115,2119,2121-2123,2130,2132-2133,2135-2136,2141-2142,2145-2148,2152,2154,2161,2163-2165,2169-2170,2172,2177,2181-2183,2185,2199,2201-2205,2207,2211-2213,2222-2223,2225-2226,2231-2232,2235,2237,2239,2241-2243,2253-2255,2257,2259,2261-2262,2266-2267,2271-2272,2275,2281,2283-2285,2289,2291-2292,2296,2298,2301-2302,2304,2312-2315,2321-2322,2325-2328,2331,2333,2351-2352,2355-2358,2361-2362,2372-2374,2376,2380-2382,2387,2391-2392,2394-2395,2401,2403-2405,2409-2412,2416,2421-2423,2432-2433,2435-2436,2439,2441-2442,2446-2447,2451,2453-2454,2461-2464,2470-2472,2476,2479,2481,2483,2485,2495-2499,2501-2502,2505,2507,2511-2513,2536,2642-2643,2651-2652,2657-2658,2717,2733,2881-2882,2884,2887,2891,2896-2897,2899,2901-2903,2909,2918,2920,2922-2924,2926-2928,2931-2933,2942,2944-2946,2951-2952,2955,2957-2958,2962,2965-2966,2971,2974-2975,2980,2982-2983,2985-2987,2989,2991-2992,3002-3003,3005,3007,3011,3015,3017-3018,3021,3023-3024,3029,3031-3032,3034-3035,3039-3040,3042,3045,3047,3051-3052,3055,3061,3063-3065,3071-3072,3075,3077-3078,3082-3084,3091-3092,3094-3095,3099,3101-3102,3105,3107,3111-3113,3123-3126,3130-3132,3135-3137,3141-3142,3151-3152,3154-3155,3160-3162,3165,3167,3171-3173,3182-3185,3189-3192,3195-3196,3201-3202,3211-3212,3214-3215,3219-3222,3234-3237,3242,3244-3246,3249-3250,3252,3255,3257,3261-3262,3264,3273-3276,3281-3282,3286,3288,3291-3292,3302-3304,3309-3310,3312,3315,3345,3375-3376,3378,3404,3417] CPU_IDs=0-31 Mem=492800 GRES=gpu:a100:4(IDX:0-3)
   MinCPUsNode=32 MinMemoryCPU=15400M MinTmpDiskNode=0
   Features=(null) DelayBoot=00:00:00
   OverSubscribe=NO Contiguous=0 Licenses=(null) Network=(null)
   Command=/leonardo_work/cin_staff/lbellen1/benchmarks/quantum_espresso/si16l-allirrep/step-ph-bench/bench_nodyn0/000001/000000_submit/work/submit.job
   WorkDir=/leonardo_work/cin_staff/lbellen1/benchmarks/quantum_espresso/si16l-allirrep/step-ph-bench/bench_nodyn0/000001/000000_submit/work
   StdErr=/leonardo_work/cin_staff/lbellen1/benchmarks/quantum_espresso/si16l-allirrep/step-ph-bench/bench_nodyn0/000001/000000_submit/work/slurm-1593147.out
   StdIn=/dev/null
   StdOut=/leonardo_work/cin_staff/lbellen1/benchmarks/quantum_espresso/si16l-allirrep/step-ph-bench/bench_nodyn0/000001/000000_submit/work/slurm-1593147.out
   Power=
   TresPerNode=gres:gpu:4
   

