JobID        JobIDRaw        JobName  Partition  MaxVMSize  MaxVMSizeNode  MaxVMSizeTask  AveVMSize     MaxRSS MaxRSSNode MaxRSSTask     AveRSS MaxPages MaxPagesNode   MaxPagesTask   AvePages     MinCPU MinCPUNode MinCPUTask     AveCPU   NTasks  AllocCPUS    Elapsed      State ExitCode AveCPUFreq ReqCPUFreqMin ReqCPUFreqMax ReqCPUFreqGov     ReqMem ConsumedEnergy  MaxDiskRead MaxDiskReadNode MaxDiskReadTask    AveDiskRead MaxDiskWrite MaxDiskWriteNode MaxDiskWriteTask   AveDiskWrite    ReqTRES  AllocTRES TRESUsageInAve TRESUsageInMax TRESUsageInMaxNode TRESUsageInMaxTask TRESUsageInMin TRESUsageInMinNode TRESUsageInMinTask TRESUsageInTot TRESUsageOutMax TRESUsageOutMaxNode TRESUsageOutMaxTask TRESUsageOutAve TRESUsageOutTot 
------------ ------------ ---------- ---------- ---------- -------------- -------------- ---------- ---------- ---------- ---------- ---------- -------- ------------ -------------- ---------- ---------- ---------- ---------- ---------- -------- ---------- ---------- ---------- -------- ---------- ------------- ------------- ------------- ---------- -------------- ------------ --------------- --------------- -------------- ------------ ---------------- ---------------- -------------- ---------- ---------- -------------- -------------- ------------------ ------------------ -------------- ------------------ ------------------ -------------- --------------- ------------------- ------------------- --------------- --------------- 
2261457      2261457      submit.job boost_usr+                                                                                                                                                                                                             800   00:02:22    RUNNING      0:0                  Unknown       Unknown       Unknown  12320000M                                                                                                                                          billing=8+ billing=8+                                                                                                                                                                                                                                 
2261457.bat+ 2261457.bat+      batch                                                                                                                                                                                                               1         32   00:02:22    RUNNING      0:0          0             0             0             0                         0                                                                                                                                      cpu=32,gr+                                                                                                                                                                                                                                 
2261457.ext+ 2261457.ext+     extern                                                                                                                                                                                                              25        800   00:02:22    RUNNING      0:0          0             0             0             0                         0                                                                                                                                      billing=8+                                                                                                                                                                                                                                 
2261457.0    2261457.0         orted              8740044K       lrdn1498              0 364168.50K   7410340K   lrdn1498          0  316174506     9208     lrdn1498              0        383   00:09:01   lrdn1735         22   00:09:02       24        768   00:02:18  COMPLETED      0:0     59.84M       Unknown       Unknown       Unknown                         0        0.28M        lrdn1557               6          0.28M        0.01M         lrdn1498                0          0.01M            cpu=768,g+ cpu=00:09:02,+ cpu=00:09:02,+ cpu=lrdn1748,ener+ cpu=23,fs/disk=6,+ cpu=00:09:01,+ cpu=lrdn1735,ener+ cpu=22,fs/disk=12+ cpu=03:36:48,+ energy=0,fs/di+ energy=lrdn1528,fs+           fs/disk=0 energy=0,fs/di+ energy=0,fs/di+ 
