JobID        JobIDRaw        JobName  Partition  MaxVMSize  MaxVMSizeNode  MaxVMSizeTask  AveVMSize     MaxRSS MaxRSSNode MaxRSSTask     AveRSS MaxPages MaxPagesNode   MaxPagesTask   AvePages     MinCPU MinCPUNode MinCPUTask     AveCPU   NTasks  AllocCPUS    Elapsed      State ExitCode AveCPUFreq ReqCPUFreqMin ReqCPUFreqMax ReqCPUFreqGov     ReqMem ConsumedEnergy  MaxDiskRead MaxDiskReadNode MaxDiskReadTask    AveDiskRead MaxDiskWrite MaxDiskWriteNode MaxDiskWriteTask   AveDiskWrite    ReqTRES  AllocTRES TRESUsageInAve TRESUsageInMax TRESUsageInMaxNode TRESUsageInMaxTask TRESUsageInMin TRESUsageInMinNode TRESUsageInMinTask TRESUsageInTot TRESUsageOutMax TRESUsageOutMaxNode TRESUsageOutMaxTask TRESUsageOutAve TRESUsageOutTot 
------------ ------------ ---------- ---------- ---------- -------------- -------------- ---------- ---------- ---------- ---------- ---------- -------- ------------ -------------- ---------- ---------- ---------- ---------- ---------- -------- ---------- ---------- ---------- -------- ---------- ------------- ------------- ------------- ---------- -------------- ------------ --------------- --------------- -------------- ------------ ---------------- ---------------- -------------- ---------- ---------- -------------- -------------- ------------------ ------------------ -------------- ------------------ ------------------ -------------- --------------- ------------------- ------------------- --------------- --------------- 
2227032      2227032      submit.job boost_usr+                                                                                                                                                                                                            1600   02:26:53    RUNNING      0:0                  Unknown       Unknown       Unknown  24062.50G                                                                                                                                          billing=1+ billing=1+                                                                                                                                                                                                                                 
2227032.bat+ 2227032.bat+      batch                                                                                                                                                                                                               1         32   02:26:53    RUNNING      0:0          0             0             0             0                         0                                                                                                                                      cpu=32,gr+                                                                                                                                                                                                                                 
2227032.ext+ 2227032.ext+     extern                                                                                                                                                                                                              50       1600   02:26:53    RUNNING      0:0          0             0             0             0                         0                                                                                                                                      billing=1+                                                                                                                                                                                                                                 
2227032.0    2227032.0         orted             32229496K       lrdn0590              0  673530691  27753792K   lrdn0590          0  579997612    10663     lrdn0590              0        217   09:44:34   lrdn2084         37   09:46:31       49       1568   02:26:49  COMPLETED      0:0      3.13M       Unknown       Unknown       Unknown                         0        0.29M        lrdn1098               4          0.29M        0.01M         lrdn0590                0          0.01M            cpu=1568,+ cpu=09:46:31,+ cpu=09:46:43,+ cpu=lrdn2156,ener+ cpu=44,fs/disk=4,+ cpu=09:44:34,+ cpu=lrdn2084,ener+ cpu=37,fs/disk=37+ cpu=19-22:59:+ energy=0,fs/di+ energy=lrdn2090,fs+           fs/disk=0 energy=0,fs/di+ energy=0,fs/di+ 
